{
  "friends": [
    {
      "friend": {
        "name": "Friend 1",
        "image": "https://images.pexels.com/photos/736716/pexels-photo-736716.jpeg?auto=compress&cs=tinysrgb&dpr=1&w=500'",
        "lastMessage": "Hi Friend 2"
      }
    },
    {
      "friend": {
        "name": "Friend 1",
        "image": "https://images.pexels.com/photos/736716/pexels-photo-736716.jpeg?auto=compress&cs=tinysrgb&dpr=1&w=500'",
        "lastMessage": "Hi Friend 2"
      }
    },
    {
      "friend": {
        "name": "Friend 1",
        "image": "https://images.pexels.com/photos/736716/pexels-photo-736716.jpeg?auto=compress&cs=tinysrgb&dpr=1&w=500'",
        "lastMessage": "Hi Friend 2"
      }
    }
  ]
}